src/cpu.vcd
$date
	Sun Jul 09 19:48:18 2023
$end
$version
	Icarus Verilog
$end
$timescale
	1ps
$end
$scope module cpu54_tb $end
$var wire 5 ! cp0_cause [4:0] $end
$var wire 32 " cp0_reg [31:0] $end
$var wire 54 # decoded_instr [53:0] $end
$var wire 1 $ eret $end
$var wire 32 % exc_addr [31:0] $end
$var wire 1 & exeption $end
$var wire 5 ' state [4:0] $end
$var wire 32 ( pc [31:0] $end
$var wire 32 ) inst [31:0] $end
$var reg 1 * clk $end
$var reg 32 + pc_pre [31:0] $end
$var reg 32 , pre_inst [31:0] $end
$var reg 1 - reset $end
$var integer 32 . counter [31:0] $end
$var integer 32 / file_output [31:0] $end
$scope module uut $end
$var wire 1 * clk_in $end
$var wire 32 0 inst [31:0] $end
$var wire 32 1 pc [31:0] $end
$var wire 1 - reset $end
$var wire 32 2 w_data [31:0] $end
$var wire 2 3 store_format_signal [1:0] $end
$var wire 32 4 r_data [31:0] $end
$var wire 11 5 instruction_addr [10:0] $end
$var wire 32 6 instruction [31:0] $end
$var wire 32 7 instr_addr_read [31:0] $end
$var wire 1 8 dmem_w $end
$var wire 1 9 dmem_r $end
$var wire 32 : data_addr_read [31:0] $end
$var wire 11 ; data_addr [10:0] $end
$scope module dmem_inst $end
$var wire 1 * clk $end
$var wire 11 < dm_addr [10:0] $end
$var wire 2 = store_format_signal [1:0] $end
$var wire 32 > dm_wdata [31:0] $end
$var wire 1 8 dm_w $end
$var wire 32 ? dm_rdata [31:0] $end
$var wire 1 9 dm_r $end
$upscope $end
$scope module imem_inst $end
$var wire 11 @ a [10:0] $end
$var wire 32 A spo [31:0] $end
$upscope $end
$scope module sccpu $end
$var wire 1 B busy $end
$var wire 1 C carry_signal $end
$var wire 1 * clk $end
$var wire 32 D data_addr [31:0] $end
$var wire 32 E dmem_data [31:0] $end
$var wire 32 F instr [31:0] $end
$var wire 32 G instr_addr [31:0] $end
$var wire 1 H mulu_done $end
$var wire 1 - rst $end
$var wire 32 I w_data [31:0] $end
$var wire 1 J zout $end
$var wire 1 K zin $end
$var wire 1 L zero_signal $end
$var wire 32 M z_value [31:0] $end
$var wire 2 N store_format_signal [1:0] $end
$var wire 32 O res_ru [31:0] $end
$var wire 32 P res_r [31:0] $end
$var wire 32 Q res_qu [31:0] $end
$var wire 32 R res_q [31:0] $end
$var wire 64 S res_mulu [63:0] $end
$var wire 64 T res_mul [63:0] $end
$var wire 1 U regfile_w $end
$var wire 3 V ref_wdata_signal [2:0] $end
$var wire 32 W ref_wdata [31:0] $end
$var wire 2 X ref_waddr_signal [1:0] $end
$var wire 5 Y ref_waddr [4:0] $end
$var wire 32 Z re_ext_imm [31:0] $end
$var wire 32 [ re_ext_dmem_hw [31:0] $end
$var wire 32 \ re_ext_dmem_b [31:0] $end
$var wire 32 ] re_ext5 [31:0] $end
$var wire 32 ^ re_ext18 [31:0] $end
$var wire 32 _ pc_value [31:0] $end
$var wire 1 ` pc_ena $end
$var wire 1 a overflow_signal $end
$var wire 32 b operand_b [31:0] $end
$var wire 32 c operand_a [31:0] $end
$var wire 2 d operand2_signal [1:0] $end
$var wire 2 e operand1_signal [1:0] $end
$var wire 32 f npc_wdata [31:0] $end
$var wire 32 g npc_value [31:0] $end
$var wire 2 h npc_input_signal [1:0] $end
$var wire 1 i npc_in $end
$var wire 1 j negative_signal $end
$var wire 1 k mulu_start $end
$var wire 1 l mul_start $end
$var wire 1 m mul_done $end
$var wire 2 n lo_input_signal [1:0] $end
$var wire 32 o lo_input [31:0] $end
$var wire 1 p lo_ena $end
$var wire 32 q lo_data [31:0] $end
$var wire 32 r joint_addr [31:0] $end
$var wire 1 s ir_in $end
$var wire 32 t ir_data [31:0] $end
$var wire 2 u hi_input_signal [1:0] $end
$var wire 32 v hi_input [31:0] $end
$var wire 1 w hi_ena $end
$var wire 32 x hi_data [31:0] $end
$var wire 1 y extend8_signal1 $end
$var wire 1 z extend16_signal2 $end
$var wire 1 { extend16_signal1 $end
$var wire 1 | ext5_input_signal $end
$var wire 5 } ext5_input [4:0] $end
$var wire 32 ~ exc_addr [31:0] $end
$var wire 1 8 dmem_w $end
$var wire 1 9 dmem_r $end
$var wire 2 !" dmem2ref_signal [1:0] $end
$var wire 32 "" dmem2ref [31:0] $end
$var wire 1 #" divu_start $end
$var wire 1 $" divu_busy $end
$var wire 1 %" div_start $end
$var wire 1 &" div_busy $end
$var wire 54 '" decoded_instr [53:0] $end
$var wire 1 (" decode_ena $end
$var wire 1 )" cp0_ena $end
$var wire 32 *" cp0_data [31:0] $end
$var wire 5 +" cp0_cause [4:0] $end
$var wire 32 ," clz_value [31:0] $end
$var wire 32 -" alu_result [31:0] $end
$var wire 4 ." alu_control [3:0] $end
$var wire 32 /" Rt_value [31:0] $end
$var wire 32 0" Rs_value [31:0] $end
$var wire 1 1" Rs_signal $end
$var wire 1 2" MDR_in $end
$var wire 32 3" MDR_data [31:0] $end
$scope module MDR_inst $end
$var wire 1 * clk $end
$var wire 32 4" data_in [31:0] $end
$var wire 32 5" data_out [31:0] $end
$var wire 1 - rst $end
$var wire 1 2" ena $end
$var reg 32 6" data [31:0] $end
$upscope $end
$scope module alu_inst $end
$var wire 1 C carry $end
$var wire 1 a overflow $end
$var wire 1 L zero $end
$var wire 32 7" r [31:0] $end
$var wire 1 j negative $end
$var wire 32 8" b [31:0] $end
$var wire 4 9" aluc [3:0] $end
$var wire 32 :" a [31:0] $end
$var reg 33 ;" tmp [32:0] $end
$upscope $end
$scope module clz_inst $end
$var wire 32 <" value [31:0] $end
$var reg 32 =" num_zero [31:0] $end
$upscope $end
$scope module controller_inst $end
$var wire 1 2" MDR_in $end
$var wire 1 1" Rs_signal $end
$var wire 1 B busy $end
$var wire 1 * clk $end
$var wire 1 )" cp0_ena $end
$var wire 1 (" decode_ena $end
$var wire 1 %" div_start $end
$var wire 1 #" divu_start $end
$var wire 1 9 dmem_r $end
$var wire 1 8 dmem_w $end
$var wire 1 | ext5_input_signal $end
$var wire 1 { extend16_signal1 $end
$var wire 1 w hi_ena $end
$var wire 1 s ir_in $end
$var wire 1 p lo_ena $end
$var wire 1 i npc_in $end
$var wire 1 ` pc_ena $end
$var wire 1 U regfile_w $end
$var wire 1 - rst $end
$var wire 1 L zero $end
$var wire 1 K zin $end
$var wire 1 J zout $end
$var wire 2 >" store_format_signal [1:0] $end
$var wire 3 ?" ref_wdata_signal [2:0] $end
$var wire 2 @" ref_waddr_signal [1:0] $end
$var wire 2 A" operand2_signal [1:0] $end
$var wire 2 B" operand1_signal [1:0] $end
$var wire 2 C" npc_input_signal [1:0] $end
$var wire 1 k mulu_start $end
$var wire 1 l mul_start $end
$var wire 2 D" lo_input_signal [1:0] $end
$var wire 2 E" hi_input_signal [1:0] $end
$var wire 1 y extend8_signal1 $end
$var wire 1 z extend16_signal2 $end
$var wire 2 F" dmem2ref_signal [1:0] $end
$var wire 54 G" decoded_instr [53:0] $end
$var wire 5 H" cp0_cause [4:0] $end
$var wire 4 I" alu_control [3:0] $end
$var reg 5 J" next_state [4:0] $end
$var reg 5 K" states [4:0] $end
$upscope $end
$scope module cp0_inst $end
$var wire 5 L" Rd [4:0] $end
$var wire 5 M" cause [4:0] $end
$var wire 1 * clk $end
$var wire 1 )" ena $end
$var wire 1 N" eret $end
$var wire 1 O" exception $end
$var wire 1 P" mfc0 $end
$var wire 1 Q" mtc0 $end
$var wire 1 - rst $end
$var wire 32 R" wdata [31:0] $end
$var wire 32 S" rdata [31:0] $end
$var wire 32 T" npc [31:0] $end
$var reg 32 U" exc_addr [31:0] $end
$upscope $end
$scope module cpu_ref $end
$var wire 1 * clk $end
$var wire 1 a is_overflow $end
$var wire 5 V" raddr1 [4:0] $end
$var wire 5 W" raddr2 [4:0] $end
$var wire 1 - rst $end
$var wire 1 U we $end
$var wire 32 X" wdata [31:0] $end
$var wire 5 Y" waddr [4:0] $end
$var wire 32 Z" rdata2 [31:0] $end
$var wire 32 [" rdata1 [31:0] $end
$upscope $end
$scope module decodere_inst $end
$var wire 1 (" ena $end
$var wire 32 \" raw_instruction [31:0] $end
$var wire 12 ]" tmp [11:0] $end
$var reg 54 ^" code [53:0] $end
$upscope $end
$scope module div_inst $end
$var wire 1 * clock $end
$var wire 32 _" dividend [31:0] $end
$var wire 32 `" divisor [31:0] $end
$var wire 1 a" ready $end
$var wire 1 - reset $end
$var wire 1 %" start $end
$var wire 32 b" tmp_r2 [31:0] $end
$var wire 33 c" sub_add [32:0] $end
$var wire 32 d" r [31:0] $end
$var wire 32 e" q [31:0] $end
$var reg 1 &" busy $end
$var reg 1 f" busy2 $end
$var reg 5 g" count [4:0] $end
$var reg 1 h" r_sign $end
$var reg 32 i" reg_b [31:0] $end
$var reg 32 j" reg_q [31:0] $end
$var reg 32 k" reg_r [31:0] $end
$upscope $end
$scope module divu_inst $end
$var wire 1 * clock $end
$var wire 32 l" dividend [31:0] $end
$var wire 32 m" divisor [31:0] $end
$var wire 1 n" ready $end
$var wire 1 - reset $end
$var wire 1 #" start $end
$var wire 33 o" sub_add [32:0] $end
$var wire 32 p" r [31:0] $end
$var wire 32 q" q [31:0] $end
$var reg 1 $" busy $end
$var reg 1 r" busy2 $end
$var reg 5 s" count [4:0] $end
$var reg 1 t" r_sign $end
$var reg 32 u" reg_b [31:0] $end
$var reg 32 v" reg_q [31:0] $end
$var reg 32 w" reg_r [31:0] $end
$upscope $end
$scope module ext_inst1 $end
$var wire 32 x" o [31:0] $end
$var wire 1 y" sign $end
$var wire 5 z" in [4:0] $end
$upscope $end
$scope module ext_inst2 $end
$var wire 16 {" in [15:0] $end
$var wire 1 { sign $end
$var wire 32 |" o [31:0] $end
$upscope $end
$scope module ext_inst3 $end
$var wire 8 }" in [7:0] $end
$var wire 1 y sign $end
$var wire 32 ~" o [31:0] $end
$upscope $end
$scope module ext_inst4 $end
$var wire 16 !# in [15:0] $end
$var wire 1 z sign $end
$var wire 32 "# o [31:0] $end
$upscope $end
$scope module ext_inst5 $end
$var wire 18 ## in [17:0] $end
$var wire 32 $# o [31:0] $end
$var wire 1 %# sign $end
$upscope $end
$scope module hi_reg $end
$var wire 1 * clk $end
$var wire 32 &# rdata [31:0] $end
$var wire 1 - rst $end
$var wire 1 w wena $end
$var wire 32 '# wdata [31:0] $end
$var reg 32 (# data [31:0] $end
$upscope $end
$scope module ir_inst $end
$var wire 1 * clk $end
$var wire 1 s ir_in $end
$var wire 32 )# r_data [31:0] $end
$var wire 32 *# w_data [31:0] $end
$var reg 32 +# data [31:0] $end
$upscope $end
$scope module joint_inst $end
$var wire 28 ,# jump_value [27:0] $end
$var wire 4 -# pc_value [3:0] $end
$var wire 32 .# joint_addr [31:0] $end
$upscope $end
$scope module lo_reg $end
$var wire 1 * clk $end
$var wire 32 /# rdata [31:0] $end
$var wire 1 - rst $end
$var wire 1 p wena $end
$var wire 32 0# wdata [31:0] $end
$var reg 32 1# data [31:0] $end
$upscope $end
$scope module mult_inst $end
$var wire 32 2# a [31:0] $end
$var wire 32 3# b [31:0] $end
$var wire 1 * clk $end
$var wire 1 - reset $end
$var wire 1 l start $end
$var wire 64 4# z [63:0] $end
$var wire 1 m done $end
$var reg 1 5# aux_reg $end
$var reg 7 6# count [6:0] $end
$var reg 1 m done_ $end
$var reg 32 7# faciend [31:0] $end
$var reg 33 8# factor [32:0] $end
$var reg 64 9# result [63:0] $end
$var reg 2 :# sign [1:0] $end
$var reg 33 ;# tmp_result [32:0] $end
$upscope $end
$scope module multu_inst $end
$var wire 32 <# a [31:0] $end
$var wire 32 =# b [31:0] $end
$var wire 1 * clk $end
$var wire 1 H done $end
$var wire 1 - reset $end
$var wire 1 k start $end
$var wire 64 ># z [63:0] $end
$var reg 64 ?# add0_1 [63:0] $end
$var reg 64 @# add0_15 [63:0] $end
$var reg 64 A# add0_3 [63:0] $end
$var reg 64 B# add0_7 [63:0] $end
$var reg 64 C# add10_11 [63:0] $end
$var reg 64 D# add12_13 [63:0] $end
$var reg 64 E# add12_15 [63:0] $end
$var reg 64 F# add14_15 [63:0] $end
$var reg 64 G# add16_17 [63:0] $end
$var reg 64 H# add16_19 [63:0] $end
$var reg 64 I# add16_23 [63:0] $end
$var reg 64 J# add16_31 [63:0] $end
$var reg 64 K# add18_19 [63:0] $end
$var reg 64 L# add20_21 [63:0] $end
$var reg 64 M# add20_23 [63:0] $end
$var reg 64 N# add22_23 [63:0] $end
$var reg 64 O# add24_25 [63:0] $end
$var reg 64 P# add24_27 [63:0] $end
$var reg 64 Q# add24_31 [63:0] $end
$var reg 64 R# add26_27 [63:0] $end
$var reg 64 S# add28_29 [63:0] $end
$var reg 64 T# add28_31 [63:0] $end
$var reg 64 U# add2_3 [63:0] $end
$var reg 64 V# add30_31 [63:0] $end
$var reg 64 W# add4_5 [63:0] $end
$var reg 64 X# add4_7 [63:0] $end
$var reg 64 Y# add6_7 [63:0] $end
$var reg 64 Z# add8_11 [63:0] $end
$var reg 64 [# add8_15 [63:0] $end
$var reg 64 \# add8_9 [63:0] $end
$var reg 3 ]# counter [2:0] $end
$var reg 1 ^# done_ $end
$var reg 64 _# res [63:0] $end
$var reg 64 `# stored0 [63:0] $end
$var reg 64 a# stored1 [63:0] $end
$var reg 64 b# stored10 [63:0] $end
$var reg 64 c# stored11 [63:0] $end
$var reg 64 d# stored12 [63:0] $end
$var reg 64 e# stored13 [63:0] $end
$var reg 64 f# stored14 [63:0] $end
$var reg 64 g# stored15 [63:0] $end
$var reg 64 h# stored16 [63:0] $end
$var reg 64 i# stored17 [63:0] $end
$var reg 64 j# stored18 [63:0] $end
$var reg 64 k# stored19 [63:0] $end
$var reg 64 l# stored2 [63:0] $end
$var reg 64 m# stored20 [63:0] $end
$var reg 64 n# stored21 [63:0] $end
$var reg 64 o# stored22 [63:0] $end
$var reg 64 p# stored23 [63:0] $end
$var reg 64 q# stored24 [63:0] $end
$var reg 64 r# stored25 [63:0] $end
$var reg 64 s# stored26 [63:0] $end
$var reg 64 t# stored27 [63:0] $end
$var reg 64 u# stored28 [63:0] $end
$var reg 64 v# stored29 [63:0] $end
$var reg 64 w# stored3 [63:0] $end
$var reg 64 x# stored30 [63:0] $end
$var reg 64 y# stored31 [63:0] $end
$var reg 64 z# stored4 [63:0] $end
$var reg 64 {# stored5 [63:0] $end
$var reg 64 |# stored6 [63:0] $end
$var reg 64 }# stored7 [63:0] $end
$var reg 64 ~# stored8 [63:0] $end
$var reg 64 !$ stored9 [63:0] $end
$upscope $end
$scope module mux2_inst1 $end
$var wire 5 "$ in1 [4:0] $end
$var wire 5 #$ in2 [4:0] $end
$var wire 1 | signal $end
$var wire 5 $$ o [4:0] $end
$upscope $end
$scope module mux4_inst1 $end
$var wire 5 %$ in1 [4:0] $end
$var wire 5 &$ in2 [4:0] $end
$var wire 5 '$ in3 [4:0] $end
$var wire 5 ($ in4 [4:0] $end
$var wire 2 )$ signal [1:0] $end
$var reg 5 *$ o [4:0] $end
$upscope $end
$scope module mux4_inst2 $end
$var wire 32 +$ in2 [31:0] $end
$var wire 32 ,$ in3 [31:0] $end
$var wire 32 -$ in4 [31:0] $end
$var wire 2 .$ signal [1:0] $end
$var wire 32 /$ in1 [31:0] $end
$var reg 32 0$ o [31:0] $end
$upscope $end
$scope module mux4_inst3 $end
$var wire 32 1$ in1 [31:0] $end
$var wire 32 2$ in2 [31:0] $end
$var wire 32 3$ in3 [31:0] $end
$var wire 32 4$ in4 [31:0] $end
$var wire 2 5$ signal [1:0] $end
$var reg 32 6$ o [31:0] $end
$upscope $end
$scope module mux4_inst4 $end
$var wire 32 7$ in1 [31:0] $end
$var wire 32 8$ in2 [31:0] $end
$var wire 32 9$ in4 [31:0] $end
$var wire 2 :$ signal [1:0] $end
$var wire 32 ;$ in3 [31:0] $end
$var reg 32 <$ o [31:0] $end
$upscope $end
$scope module mux4_inst5 $end
$var wire 32 =$ in1 [31:0] $end
$var wire 32 >$ in2 [31:0] $end
$var wire 32 ?$ in3 [31:0] $end
$var wire 32 @$ in4 [31:0] $end
$var wire 2 A$ signal [1:0] $end
$var reg 32 B$ o [31:0] $end
$upscope $end
$scope module mux4_inst6 $end
$var wire 32 C$ in1 [31:0] $end
$var wire 32 D$ in2 [31:0] $end
$var wire 32 E$ in3 [31:0] $end
$var wire 32 F$ in4 [31:0] $end
$var wire 2 G$ signal [1:0] $end
$var reg 32 H$ o [31:0] $end
$upscope $end
$scope module mux4_inst7 $end
$var wire 32 I$ in1 [31:0] $end
$var wire 32 J$ in2 [31:0] $end
$var wire 32 K$ in3 [31:0] $end
$var wire 32 L$ in4 [31:0] $end
$var wire 2 M$ signal [1:0] $end
$var reg 32 N$ o [31:0] $end
$upscope $end
$scope module mux8_inst1 $end
$var wire 32 O$ in2 [31:0] $end
$var wire 32 P$ in3 [31:0] $end
$var wire 32 Q$ in4 [31:0] $end
$var wire 32 R$ in5 [31:0] $end
$var wire 32 S$ in6 [31:0] $end
$var wire 32 T$ in7 [31:0] $end
$var wire 32 U$ in8 [31:0] $end
$var wire 3 V$ signal [2:0] $end
$var wire 32 W$ in1 [31:0] $end
$var reg 32 X$ o [31:0] $end
$upscope $end
$scope module npc_inst $end
$var wire 32 Y$ data_in [31:0] $end
$var wire 1 i npc_in $end
$var wire 1 - rst $end
$var wire 32 Z$ data_out [31:0] $end
$var reg 32 [$ next_instr_addr [31:0] $end
$upscope $end
$scope module pc_inst $end
$var wire 1 * clk $end
$var wire 32 \$ data_in [31:0] $end
$var wire 1 ` ena $end
$var wire 1 - rstn $end
$var wire 32 ]$ data_out [31:0] $end
$var reg 32 ^$ mem [31:0] $end
$upscope $end
$scope module z_reg_inst $end
$var wire 1 * clk $end
$var wire 1 - rst $end
$var wire 32 _$ w_data [31:0] $end
$var wire 1 K zin $end
$var wire 1 J zout $end
$var wire 32 `$ r_data [31:0] $end
$var reg 32 a$ data [31:0] $end
$upscope $end
$upscope $end
$upscope $end
$upscope $end
$enddefinitions $end
#0
$dumpvars
b0 a$
bz `$
bx _$
b10000000000000000000000 ^$
b10000000000000000000000 ]$
b10000000000000000000000 \$
b10000000000000000000000 [$
b10000000000000000000000 Z$
bx Y$
bx X$
bz W$
bx V$
bz U$
b0 T$
bx S$
b0 R$
b0 Q$
b100000 P$
bx O$
bx N$
bx M$
b0 L$
bx K$
bx J$
b0 I$
bx H$
bx G$
b0 F$
bx E$
bx D$
b0 C$
bx B$
bx A$
b100 @$
b0 ?$
b0 >$
b0 =$
bx <$
b10000000000000000000000 ;$
bx :$
bz 9$
b0 8$
b0 7$
bx 6$
bx 5$
bz 4$
b0 3$
b0 2$
b0 1$
bx 0$
bz /$
bx .$
bx -$
b0 ,$
b0 +$
bx *$
bx )$
bz ($
b11111 '$
b0 &$
b0 %$
b0 $$
b0 #$
b0 "$
b0 !$
b0 ~#
b0 }#
b0 |#
b0 {#
b0 z#
b0 y#
b0 x#
b0 w#
b0 v#
b0 u#
b0 t#
b0 s#
b0 r#
b0 q#
b0 p#
b0 o#
b0 n#
b0 m#
b0 l#
b0 k#
b0 j#
b0 i#
b0 h#
b0 g#
b0 f#
b0 e#
b0 d#
b0 c#
b0 b#
b0 a#
b0 `#
b0 _#
1^#
b0 ]#
b0 \#
b0 [#
b0 Z#
b0 Y#
b0 X#
b0 W#
b0 V#
b0 U#
b0 T#
b0 S#
b0 R#
b0 Q#
b0 P#
b0 O#
b0 N#
b0 M#
b0 L#
b0 K#
b0 J#
b0 I#
b0 H#
b0 G#
b0 F#
b0 E#
b0 D#
b0 C#
b0 B#
b0 A#
b0 @#
b0 ?#
b0 >#
b0 =#
b0 <#
b0 ;#
b0 :#
b0 9#
b0 8#
b0 7#
b0 6#
05#
b0 4#
b0 3#
b0 2#
b0 1#
bx 0#
b0 /#
b0 .#
b0 -#
b0 ,#
bx +#
b0 *#
bx )#
b0 (#
bx '#
b0 &#
1%#
b0 $#
b0 ##
b0 "#
b0 !#
b0 ~"
b0 }"
b0 |"
b0 {"
b0 z"
0y"
b0 x"
bx w"
bx v"
bx u"
xt"
b0 s"
0r"
bx q"
bx p"
bx o"
0n"
b0 m"
b0 l"
bx k"
bx j"
bx i"
xh"
b0 g"
0f"
bx e"
bx d"
bx c"
bx b"
0a"
b0 `"
b0 _"
bx ^"
b0 ]"
b0 \"
b0 ["
b0 Z"
bx Y"
bx X"
b0 W"
b0 V"
bx U"
b10000000000000000000000 T"
bx S"
b0 R"
xQ"
xP"
xO"
xN"
b0xx0x M"
b0 L"
bx K"
b1 J"
bx I"
b0xx0x H"
bx G"
bx F"
bx E"
bx D"
bx C"
bx B"
bx A"
bx @"
bx ?"
bx >"
b100000 ="
b0 <"
bx ;"
bx :"
bx 9"
bx 8"
bx 7"
b0 6"
b0 5"
bx 4"
b0 3"
x2"
01"
b0 0"
b0 /"
bx ."
bx -"
b100000 ,"
b0xx0x +"
bx *"
0)"
0("
bx '"
0&"
x%"
0$"
x#"
bx ""
bx !"
bx ~
b0 }
x|
x{
xz
xy
b0 x
xw
bx v
bx u
bx t
0s
b0 r
b0 q
xp
bx o
bx n
1m
xl
xk
xj
0i
bx h
b10000000000000000000000 g
bx f
bx e
bx d
bx c
bx b
xa
0`
b10000000000000000000000 _
b0 ^
b0 ]
b0 \
b0 [
b0 Z
bx Y
bx X
bx W
bx V
0U
b0 T
b0 S
bx R
bx Q
bx P
bx O
bx N
bz M
xL
0K
0J
b0 I
zH
b10000000000000000000000 G
b0 F
bx E
bz D
0C
0B
b0 A
b0 @
bx ?
b0 >
bx =
bx <
bx ;
bz :
x9
x8
b10000000000000000000000 7
b0 6
b0 5
bx 4
bx 3
b0 2
b10000000000000000000000 1
b0 0
b10 /
b0 .
1-
b0 ,
b10000000000000000000000 +
0*
b0 )
b10000000000000000000000 (
bx '
x&
bx %
x$
bx #
b1111 "
b0xx0x !
$end
#2000
0a
0j
b10000000000000000000100 -"
b10000000000000000000100 7"
b10000000000000000000100 _$
b0 o
b0 0#
b0 N$
b0 v
b0 '#
b0 H$
b0 ""
b0 6$
b0 O$
bz W
bz X"
bz X$
b0 Y
b0 Y"
b0 *$
0L
b10000000000000000000100 ;"
b0 !
b0 +"
b0 H"
b0 M"
b0 n
b0 D"
b0 M$
b0 u
b0 E"
b0 G$
b0 !"
b0 F"
b0 5$
0{
b0 V
b0 ?"
b0 V$
0|
0&
0O"
bz *"
bz S"
bz S$
0k
0l
b0 3
b0 =
b0 N
b0 >"
0y
0z
b0 X
b0 @"
b0 )$
0$
0N"
0Q"
0P"
bz f
bz 0$
bz Y$
b10000000000000000000000 c
b10000000000000000000000 :"
b10000000000000000000000 <$
b100 b
b100 8"
b100 B$
b10000000000 #
b10000000000 '"
b10000000000 G"
b10000000000 ^"
bz 4
bz ?
bz E
bz 4"
b0 ."
b0 9"
b0 I"
b0 h
b0 C"
b0 .$
b10 e
b10 B"
b10 :$
b11 d
b11 A"
b11 A$
09
02"
08
0w
0p
0%"
0#"
b1 '
b1 K"
bz :
bz D
bz M
bz /$
bz W$
bz `$
b10 J"
1K
0J
0i
1`
1s
1("
0U
0)"
1*
0-
#4000
b0 t
b0 )#
b0 +#
b10000000000000000000100 a$
0*
#6000
b0 -"
b0 7"
b0 _$
1L
b0 ;"
b0 r
b0 .#
b0 ,$
b0 -#
b10000000000000000000100 f
b10000000000000000000100 0$
b10000000000000000000100 Y$
b10000000000000000000100 W
b10000000000000000000100 X"
b10000000000000000000100 X$
b10000000000000000000100 g
b10000000000000000000100 T"
b10000000000000000000100 ;$
b10000000000000000000100 Z$
b10000000000000000000100 [$
b10000000000000000000100 \$
b0 c
b0 :"
b0 <$
b0 b
b0 8"
b0 B$
b1 ;
b1 <
b10000000000000000000100 :
b10000000000000000000100 D
b10000000000000000000100 M
b10000000000000000000100 /$
b10000000000000000000100 W$
b10000000000000000000100 `$
1J
0K
1i
0`
b0 e
b0 B"
b0 :$
b0 d
b0 A"
b0 A$
0s
0("
b10 '
b10 K"
b100 J"
1*
#8000
0*
#10000
bz f
bz 0$
bz Y$
bz W
bz X"
bz X$
bx ;
bx <
bz :
bz D
bz M
bz /$
bz W$
bz `$
0J
1K
0i
b1010 ."
b1010 9"
b1010 I"
b1 e
b1 B"
b1 :$
b10000 J"
b100 '
b100 K"
1*
#12000
b0 a$
0*
#14000
b0 f
b0 0$
b0 Y$
b0 W
b0 X"
b0 X$
b0 ;
b0 <
b0 :
b0 D
b0 M
b0 /$
b0 W$
b0 `$
1J
0K
1U
b0 e
b0 B"
b0 :$
b10000 '
b10000 K"
b1 J"
1*
#16000
0*
#18000
b10000000000000000001000 -"
b10000000000000000001000 7"
b10000000000000000001000 _$
0L
b10000000000000000001000 ;"
bz f
bz 0$
bz Y$
bz W
bz X"
bz X$
b10000000000000000000100 c
b10000000000000000000100 :"
b10000000000000000000100 <$
b100 b
b100 8"
b100 B$
bx ;
bx <
bz :
bz D
bz M
bz /$
bz W$
bz `$
0J
1K
0U
b0 ."
b0 9"
b0 I"
1`
b10 e
b10 B"
b10 :$
b11 d
b11 A"
b11 A$
1s
1("
b1 '
b1 K"
b10 J"
1*
#20000
b1000 Y
b1000 Y"
b1000 *$
1{
b1 X
b1 @"
b1 )$
b100000000000000000 #
b100000000000000000 '"
b100000000000000000 G"
b100000000000000000 ^"
b10000000000000000001000 a$
b11 Z
b11 |"
b11 >$
b1000 &$
b1000 W"
b11 {"
b1100 ^
b1100 $#
b1100 ?$
b1100 ##
b1000000000000000001100 r
b1000000000000000001100 .#
b1000000000000000001100 ,$
b1000000000000000001100 ,#
b1000000011 ]"
b100000000010000000000000000011 )
b100000000010000000000000000011 0
b100000000010000000000000000011 6
b100000000010000000000000000011 A
b100000000010000000000000000011 F
b100000000010000000000000000011 \"
b100000000010000000000000000011 *#
b1 5
b1 @
b10000000000000000000100 (
b10000000000000000000100 1
b10000000000000000000100 7
b10000000000000000000100 G
b10000000000000000000100 _
b10000000000000000000100 ]$
b10000000000000000000100 ^$
0*
#22000
b0 -"
b0 7"
b0 _$
1L
b0 ;"
b1000000000000000001100 r
b1000000000000000001100 .#
b1000000000000000001100 ,$
b0 -#
b10000000000000000001000 f
b10000000000000000001000 0$
b10000000000000000001000 Y$
b10000000000000000001000 W
b10000000000000000001000 X"
b10000000000000000001000 X$
b10000000000000000001000 g
b10000000000000000001000 T"
b10000000000000000001000 ;$
b10000000000000000001000 Z$
b10000000000000000001000 [$
b10000000000000000001000 \$
b0 c
b0 :"
b0 <$
b0 b
b0 8"
b0 B$
b10 ;
b10 <
b10000000000000000001000 :
b10000000000000000001000 D
b10000000000000000001000 M
b10000000000000000001000 /$
b10000000000000000001000 W$
b10000000000000000001000 `$
1J
0K
1i
0`
b0 e
b0 B"
b0 :$
b0 d
b0 A"
b0 A$
0s
0("
b10 '
b10 K"
b100 J"
b100000000010000000000000000011 ,
b10000000000000000000100 +
b1 .
1*
#24000
0*
#26000
b11 -"
b11 7"
b11 _$
0L
b11 ;"
bz f
bz 0$
bz Y$
bz W
bz X"
bz X$
b11 b
b11 8"
b11 B$
bx ;
bx <
bz :
bz D
bz M
bz /$
bz W$
bz `$
0J
1K
0i
b1 d
b1 A"
b1 A$
b10000 J"
b100 '
b100 K"
1*
#28000
b11 a$
0*
#30000
b0 -"
b0 7"
b0 _$
1L
b0 ;"
b11 f
b11 0$
b11 Y$
b11 W
b11 X"
b11 X$
b0 b
b0 8"
b0 B$
b0 ;
b0 <
b11 :
b11 D
b11 M
b11 /$
b11 W$
b11 `$
1J
0K
1U
b0 d
b0 A"
b0 A$
b10000 '
b10000 K"
b1 J"
1*
#32000
b11 -"
b11 7"
b11 _$
0L
b11 ;"
b11 b
b11 8"
b11 B$
b11 2
b11 >
b11 I
b11 /"
b11 R"
b11 Z"
b11 `"
b11 m"
b11 3#
b11 =#
b11 =$
0*
#34000
b10000000000000000001100 -"
b10000000000000000001100 7"
b10000000000000000001100 _$
b10000000000000000001100 ;"
bz f
bz 0$
bz Y$
bz W
bz X"
bz X$
b10000000000000000001000 c
b10000000000000000001000 :"
b10000000000000000001000 <$
b100 b
b100 8"
b100 B$
bx ;
bx <
bz :
bz D
bz M
bz /$
bz W$
bz `$
0J
1K
0U
1`
b10 e
b10 B"
b10 :$
b11 d
b11 A"
b11 A$
1s
1("
b1 '
b1 K"
b10 J"
1*
#36000
1K
0{
b0 X
b0 @"
b0 )$
1Q"
b1000000000000000000000000000000000000000000000 #
b1000000000000000000000000000000000000000000000 '"
b1000000000000000000000000000000000000000000000 G"
b1000000000000000000000000000000000000000000000 ^"
b100000000010000000000000000011 t
b100000000010000000000000000011 )#
b100000000010000000000000000011 +#
b10000000000000000001100 a$
b100000000000000 Z
b100000000000000 |"
b100000000000000 >$
b1000 %$
b100 V"
b100000000000000 {"
b10000000000000000 ^
b10000000000000000 $#
b10000000000000000 ?$
b10000000000000000 ##
b10001000010000000000000000 r
b10001000010000000000000000 .#
b10001000010000000000000000 ,$
b10001000010000000000000000 ,#
b1000 L"
b10000000000 ]"
b1000000100010000100000000000000 )
b1000000100010000100000000000000 0
b1000000100010000100000000000000 6
b1000000100010000100000000000000 A
b1000000100010000100000000000000 F
b1000000100010000100000000000000 \"
b1000000100010000100000000000000 *#
b10 5
b10 @
b10000000000000000001000 (
b10000000000000000001000 1
b10000000000000000001000 7
b10000000000000000001000 G
b10000000000000000001000 _
b10000000000000000001000 ]$
b10000000000000000001000 ^$
0*
